%YAML 1.1
%TAG !u! tag:unity3d.com,2011:
--- !u!114 &11400000
MonoBehaviour:
  m_ObjectHideFlags: 0
  m_CorrespondingSourceObject: {fileID: 0}
  m_PrefabInstance: {fileID: 0}
  m_PrefabAsset: {fileID: 0}
  m_GameObject: {fileID: 0}
  m_Enabled: 1
  m_EditorHideFlags: 0
  m_Script: {fileID: 11500000, guid: 0eeb7631b7af0af46afbc38d563c1c13, type: 3}
  m_Name: galho
  m_EditorClassIdentifier: 
  nome: galho
  silhueta: {fileID: 0}
  img: {fileID: 0}
  item: 24
